[common]
nlayers = 6
# input_mesh = input/four_polygon.vtk
# output_mesh = output/four_polygon_output.vtk
input_mesh = input/lobster_2d.vtk
output_mesh = output/four_polygon_output.exo
repeat_face_blocks = 0

[1] /* Material layer 1 */
ncells = 10
thickness = -0.02
material_id = 1

[2] /* Material layer 2 */
ncells = 15
thickness = -0.02
material_id = 2

[3] /* Material layer 3 */
ncells = 6
thickness = -0.05
material_id = 2

[4] /* Material layer 4 */
ncells = 12
thickness = -0.1
material_id = 2

[5] /* Material layer 5 */
ncells = 10
thickness = -0.5
material_id = 2

[6] /* Material layer 6 */
ncells = 33
thickness = -1.0
material_id = 2

